{
  "schemaVersion": 1,
  "id": "gems",
  "version": "${version}",

  "name": "Gems Mod",
  "description": "A simple mod to add more Gems.",
  "authors": [
    "Squigglepuff Jr."
  ],
  "contact": {
    "homepage": "https://fabricmc.net/",
    "sources": "https://github.com/FabricMC/fabric-example-mod"
  },

  "license": "CC0-1.0",
  "icon": "assets/gems/icon.png",

  "environment": "*",
  "entrypoints": {
    "main": [
      "info.snowrealm.gems.GemsMod"
    ],
    "client": [
      "info.snowrealm.gems.GemsClient"
    ]
  },
  "mixins": [],
  "depends": {
    "fabricloader": ">=0.11.3",
    "fabric": "*",
    "minecraft": "1.17.x",
    "java": ">=16"
  },
  "suggests": {
    "another-mod": "*"
  }
}
