{
	"ambientocclusion": true,
	"credit": "Made with Blockbench",
	"textures": {
		"0": "gems:item/topaz_face",
		"particle": "gems:item/topaz_face"
	},
	"display": {
		"firstperson_righthand": {
			"translation": [0, 3, 0]
		},
		"firstperson_lefthand": {
			"translation": [0, 3, 0]
		},
		"thirdperson_righthand": {
			"translation": [0, 0, -1]
		},
		"thirdperson_lefthand": {
			"translation": [0, 0, -1]
		},
		"fixed": {
			"translation": [0, 2, -1],
			"scale": [2.5, 2.5, 2.5],
			"rotation": [0, 90, 0]
		}
	},
	"elements": [
		{
			"from": [7.125, 4, 7],
			"to": [8.375, 8, 10],
			"rotation": {"angle": 0, "axis": "y", "origin": [7.75, 6, 8.5]},
			"color": 6,
			"faces": {
				"north": {"uv": [0, 0, 1.25, 4], "texture": "#0"},
				"east": {"uv": [0, 0, 3, 4], "texture": "#0"},
				"south": {"uv": [0, 0, 1.25, 4], "texture": "#0"},
				"west": {"uv": [0, 0, 3, 4], "texture": "#0"},
				"up": {"uv": [0, 0, 1.25, 3], "texture": "#0"},
				"down": {"uv": [0, 0, 1.25, 3], "texture": "#0"}
			}
		},
		{
			"from": [7.25, 4.325, 6.62],
			"to": [8.25, 7.625, 10.42],
			"rotation": {"angle": 0, "axis": "x", "origin": [7.75, 5.975, 8.52]},
			"color": 6,
			"faces": {
				"north": {"uv": [0, 0, 1, 3.3], "rotation": 180, "texture": "#0"},
				"east": {"uv": [0, 0, 3.3, 3.8], "rotation": 270, "texture": "#0"},
				"south": {"uv": [0, 0, 1, 3.3], "texture": "#0"},
				"west": {"uv": [0, 0, 3.3, 3.8], "rotation": 90, "texture": "#0"},
				"up": {"uv": [0, 0, 1, 3.8], "rotation": 180, "texture": "#0"},
				"down": {"uv": [0, 0, 1, 3.8], "texture": "#0"}
			}
		},
		{
			"from": [7.25, 3.625, 7.325],
			"to": [8.25, 8.325, 9.7],
			"rotation": {"angle": 0, "axis": "x", "origin": [7.75, 5.975, 8.5125]},
			"color": 6,
			"faces": {
				"north": {"uv": [0, 0, 1, 4.7], "rotation": 180, "texture": "#0"},
				"east": {"uv": [0, 0, 2.375, 4.7], "rotation": 180, "texture": "#0"},
				"south": {"uv": [0, 0, 1, 4.7], "rotation": 180, "texture": "#0"},
				"west": {"uv": [0, 0, 2.375, 4.7], "rotation": 180, "texture": "#0"},
				"up": {"uv": [0, 0, 1, 2.375], "texture": "#0"},
				"down": {"uv": [0, 0, 1, 2.375], "texture": "#0"}
			}
		},
		{
			"from": [7.25, 3.82322, 6.82322],
			"to": [8.25, 4.82322, 7.82322],
			"rotation": {"angle": 45, "axis": "x", "origin": [7.75, 4.32322, 7.32322]},
			"color": 4,
			"faces": {
				"north": {"uv": [0, 0, 1, 1], "texture": "#0"},
				"east": {"uv": [0, 0, 1, 1], "texture": "#0"},
				"south": {"uv": [0, 0, 1, 1], "texture": "#0"},
				"west": {"uv": [0, 0, 1, 1], "texture": "#0"},
				"up": {"uv": [0, 0, 1, 1], "texture": "#0"},
				"down": {"uv": [0, 0, 1, 1], "texture": "#0"}
			}
		},
		{
			"from": [7.25, 7.12541, 9.20617],
			"to": [8.25, 8.12541, 10.20617],
			"rotation": {"angle": 45, "axis": "x", "origin": [7.75, 7.62541, 9.70617]},
			"color": 4,
			"faces": {
				"north": {"uv": [0, 0, 1, 1], "texture": "#0"},
				"east": {"uv": [0, 0, 1, 1], "texture": "#0"},
				"south": {"uv": [0, 0, 1, 1], "texture": "#0"},
				"west": {"uv": [0, 0, 1, 1], "texture": "#0"},
				"up": {"uv": [0, 0, 1, 1], "texture": "#0"},
				"down": {"uv": [0, 0, 1, 1], "texture": "#0"}
			}
		},
		{
			"from": [7.25, 3.8409, 9.20971],
			"to": [8.25, 4.8409, 10.20971],
			"rotation": {"angle": 45, "axis": "x", "origin": [7.75, 4.3409, 9.70971]},
			"color": 4,
			"faces": {
				"north": {"uv": [0, 0, 1, 1], "texture": "#0"},
				"east": {"uv": [0, 0, 1, 1], "texture": "#0"},
				"south": {"uv": [0, 0, 1, 1], "texture": "#0"},
				"west": {"uv": [0, 0, 1, 1], "texture": "#0"},
				"up": {"uv": [0, 0, 1, 1], "texture": "#0"},
				"down": {"uv": [0, 0, 1, 1], "texture": "#0"}
			}
		},
		{
			"from": [7.25, 7.11834, 6.82322],
			"to": [8.25, 8.11834, 7.82322],
			"rotation": {"angle": 45, "axis": "x", "origin": [7.75, 7.61834, 7.32322]},
			"color": 4,
			"faces": {
				"north": {"uv": [0, 0, 1, 1], "texture": "#0"},
				"east": {"uv": [0, 0, 1, 1], "texture": "#0"},
				"south": {"uv": [0, 0, 1, 1], "texture": "#0"},
				"west": {"uv": [0, 0, 1, 1], "texture": "#0"},
				"up": {"uv": [0, 0, 1, 1], "texture": "#0"},
				"down": {"uv": [0, 0, 1, 1], "texture": "#0"}
			}
		}
	]
}