{
    "type": "minecraft:crafting_shaped",
    "pattern": [
        "TTT",
        "TTT",
        "TTT"
    ],
    "key": {
        "T": { "item": "gems:topaz" }
    },
    "result": {
        "item": "gems:topaz_block",
        "count": 1
    }
}